{
  "devices": [
    {
      "id": 1,
      "name": "1GrNQiePeNgNwsCf2YEG9qsuVmoAr6ro7V",
      "valueA": 71,
      "valueB": 94
    },
    {
      "id": 2,
      "name": "1KBqd4LWZ8m868MvPbYE57fGDUXcapFEBj",
      "valueA": 99,
      "valueB": 60
    },
    {
      "id": 3,
      "name": "1Hikyr3fpwWjdyBWTJToYjTDwfD7ZzqSST",
      "valueA": 48,
      "valueB": 49
    },
    {
      "id": 4,
      "name": "1GhXVzVpQ5iHMubUQ3FVTrzrnTBJZCS43N",
      "valueA": 76,
      "valueB": 54
    },
    {
      "id": 5,
      "name": "1L36DLV1mLQbko5xqPHmGjAKyyMvavX1JY",
      "valueA": 5,
      "valueB": 59
    },
    {
      "id": 6,
      "name": "172ZB2MNKduHaz7A6jvYS5brUzv5zK6XkT",
      "valueA": 70,
      "valueB": 86
    },
    {
      "id": 7,
      "name": "1BBLRj35Sn7iwE8cWBj94CApEBu8Y7rkqn",
      "valueA": 46,
      "valueB": 11
    },
    {
      "id": 8,
      "name": "1N5Ao8tnBV7rBDdyhkkmvD34iT4ij51fhZ",
      "valueA": 28,
      "valueB": 7
    },
    {
      "id": 9,
      "name": "18zkRicKTKH624DdsYqyaCt46oco8QHyDx",
      "valueA": 40,
      "valueB": 61
    },
    {
      "id": 10,
      "name": "1D73LTqjsgzQ7uUvxvbp7ghL82r2d8ZzQ2",
      "valueA": 11,
      "valueB": 37
    },
    {
      "id": 11,
      "name": "12qaju9i9sJDPanZU729AXYq3ZNrA1jAr6",
      "valueA": 53,
      "valueB": 47
    },
    {
      "id": 12,
      "name": "1PHFETkS277m5UyFQA8wrnc7wBzqbZLhis",
      "valueA": 18,
      "valueB": 28
    },
    {
      "id": 13,
      "name": "1nkDaHERtP5ANr6mYYbFASDZMWA21Bcsk",
      "valueA": 83,
      "valueB": 72
    },
    {
      "id": 14,
      "name": "1Nki5GnSFvHP3EZi77NgXtXwndjTP2FcdE",
      "valueA": 79,
      "valueB": 67
    },
    {
      "id": 15,
      "name": "17MNtpVo4fR21RxMwafnjxjG16SVCjGrJG",
      "valueA": 24,
      "valueB": 72
    },
    {
      "id": 16,
      "name": "1C7Wk4iv8J8RzEoJEEYAc5nDRsB6x47piD",
      "valueA": 95,
      "valueB": 45
    },
    {
      "id": 17,
      "name": "15oEBKWXLJs9bXkQzvtbrLy8SyScNc4nqq",
      "valueA": 99,
      "valueB": 60
    },
    {
      "id": 18,
      "name": "1JJRkKg1eHoH1ZtjWKogaoGnVUjMZiF3gh",
      "valueA": 65,
      "valueB": 30
    },
    {
      "id": 19,
      "name": "1AUdHzGwik9KmezRErU7BmxGLgDLHu6h6z",
      "valueA": 46,
      "valueB": 40
    },
    {
      "id": 20,
      "name": "1N5wyRAM7w1ucP3DZcdFVDtTbimKYHo8YK",
      "valueA": 41,
      "valueB": 74
    },
    {
      "id": 21,
      "name": "1C6xKzQhB6ajqcCAHRQrA3bZvJ7s2YcQSe",
      "valueA": 44,
      "valueB": 19
    },
    {
      "id": 22,
      "name": "1PG812sdkm7fAikS78TXUWVmSMHbGGfvnB",
      "valueA": 38,
      "valueB": 91
    },
    {
      "id": 23,
      "name": "12sxcBoGkrSzfFyrgSyHWhnVrpyHFtphrt",
      "valueA": 76,
      "valueB": 3
    },
    {
      "id": 24,
      "name": "1PmwV4HkPSjZyZnk12woyXeidZkXUfU5rY",
      "valueA": 89,
      "valueB": 50
    },
    {
      "id": 25,
      "name": "1HYmF8GQDMv3VcoxNBPWpXZVkBZmNcEKUs",
      "valueA": 11,
      "valueB": 37
    },
    {
      "id": 36,
      "name": "1NxnJzhiC4wAsmzeturNoEHpZmWuGFG2zH",
      "valueA": 82,
      "valueB": 30
    },
    {
      "id": 37,
      "name": "1M1WLJKGSk3EDUMuL8p78nGAhVjkSoF3uB",
      "valueA": 19,
      "valueB": 19
    },
    {
      "id": 38,
      "name": "1247ghq3McR8uQjruLtQiCS5qUhpByxyTP",
      "valueA": 11,
      "valueB": 90
    },
    {
      "id": 39,
      "name": "1CRuUc5Rkw6gZSPN1RJnsS9pDLC9mtYXVF",
      "valueA": 93,
      "valueB": 48
    },
    {
      "id": 40,
      "name": "1KKHse18yGvRJhV31HiBR5UEyxFLEZVoeJ",
      "valueA": 10,
      "valueB": 24
    },
    {
      "id": 41,
      "name": "15es4BRABp9f8HS4HuHdai27t4y9pR1ZM2",
      "valueA": 77,
      "valueB": 62
    },
    {
      "id": 42,
      "name": "1HEyoQ3pWjTLnKdc2brUz3mP17bnZwX1yK",
      "valueA": 78,
      "valueB": 50
    },
    {
      "id": 43,
      "name": "1DCtGEuENUx8Z5NYEanv2yutvcoLwU5vgo",
      "valueA": 32,
      "valueB": 58
    },
    {
      "id": 44,
      "name": "192TFNqAkGgmFDhZYJwTN9dgkAyRUcZCEP",
      "valueA": 43,
      "valueB": 52
    }
  ],
  "clients": [
    { "id": 1, "name": "rcohalan0", "valueA": 21 },
    { "id": 2, "name": "pgagen1", "valueA": 29 },
    { "id": 3, "name": "pfoskin2", "valueA": 33 },
    { "id": 4, "name": "eprestage3", "valueA": 36 },
    { "id": 5, "name": "agrunder4", "valueA": 29 },
    { "id": 6, "name": "edunnett5", "valueA": 22 },
    { "id": 7, "name": "klanston6", "valueA": 35 },
    { "id": 8, "name": "mscurrah7", "valueA": 38 },
    { "id": 9, "name": "esabatier8", "valueA": 32 },
    { "id": 10, "name": "bantwis9", "valueA": 32 },
    { "id": 11, "name": "elavensa", "valueA": 37 },
    { "id": 12, "name": "arenowdenb", "valueA": 28 },
    { "id": 13, "name": "mriderc", "valueA": 35 },
    { "id": 14, "name": "gtrevethand", "valueA": 21 },
    { "id": 15, "name": "vtomane", "valueA": 23 },
    { "id": 16, "name": "cnesterf", "valueA": 29 },
    { "id": 17, "name": "epilgerg", "valueA": 22 },
    { "id": 18, "name": "ksecretth", "valueA": 22 },
    { "id": 19, "name": "nnoyesi", "valueA": 20 },
    { "id": 20, "name": "idorsayj", "valueA": 22 },
    { "id": 21, "name": "dheartfieldk", "valueA": 32 },
    { "id": 22, "name": "afarleyl", "valueA": 28 },
    { "id": 23, "name": "sorrillm", "valueA": 22 },
    { "id": 24, "name": "rscallonn", "valueA": 34 },
    { "id": 25, "name": "tennalso", "valueA": 24 }
  ],
  "mars": [
    {
      "id": 1,
      "metrique": "Wood",
      "reel": 320,
      "previonel": 44,
      "difference": 36
    },
    {
      "id": 2,
      "metrique": "Rubber",
      "reel": 150,
      "previonel": 16,
      "difference": 63
    },
    {
      "id": 3,
      "metrique": "Granite",
      "reel": 175,
      "previonel": 6,
      "difference": 48
    },
    {
      "id": 4,
      "metrique": "Steel",
      "reel": 398,
      "previonel": 57,
      "difference": 45
    },
    {
      "id": 5,
      "metrique": "Glass",
      "reel": 357,
      "previonel": 51,
      "difference": 66
    },
    {
      "id": 6,
      "metrique": "Aluminum",
      "reel": 489,
      "previonel": 46,
      "difference": 80
    },
    {
      "id": 7,
      "metrique": "Steel",
      "reel": 297,
      "previonel": 73,
      "difference": 76
    },
    {
      "id": 8,
      "metrique": "Wood",
      "reel": 132,
      "previonel": 25,
      "difference": 56
    },
    {
      "id": 9,
      "metrique": "Plastic",
      "reel": 435,
      "previonel": 48,
      "difference": 50
    },
    {
      "id": 10,
      "metrique": "Plexiglass",
      "reel": 476,
      "previonel": 52,
      "difference": 37
    },
    {
      "id": 11,
      "metrique": "Plastic",
      "reel": 247,
      "previonel": 53,
      "difference": 80
    },
    {
      "id": 12,
      "metrique": "Vinyl",
      "reel": 393,
      "previonel": 23,
      "difference": 42
    },
    {
      "id": 13,
      "metrique": "Granite",
      "reel": 345,
      "previonel": 47,
      "difference": 51
    },
    {
      "id": 14,
      "metrique": "Granite",
      "reel": 227,
      "previonel": 61,
      "difference": 53
    },
    {
      "id": 15,
      "metrique": "Vinyl",
      "reel": 299,
      "previonel": 32,
      "difference": 36
    },
    {
      "id": 16,
      "metrique": "Brass",
      "reel": 367,
      "previonel": 56,
      "difference": 56
    },
    {
      "id": 17,
      "metrique": "Plastic",
      "reel": 192,
      "previonel": 50,
      "difference": 39
    },
    {
      "id": 18,
      "metrique": "Plastic",
      "reel": 208,
      "previonel": 22,
      "difference": 81
    },
    {
      "id": 19,
      "metrique": "Vinyl",
      "reel": 409,
      "previonel": 49,
      "difference": 71
    },
    {
      "id": 20,
      "metrique": "Granite",
      "reel": 218,
      "previonel": 80,
      "difference": 42
    },
    {
      "id": 21,
      "metrique": "Vinyl",
      "reel": 185,
      "previonel": 42,
      "difference": 54
    },
    {
      "id": 22,
      "metrique": "Plastic",
      "reel": 202,
      "previonel": 38,
      "difference": 52
    },
    {
      "id": 23,
      "metrique": "Plexiglass",
      "reel": 401,
      "previonel": 86,
      "difference": 38
    },
    {
      "id": 24,
      "metrique": "Brass",
      "reel": 228,
      "previonel": 33,
      "difference": 71
    },
    {
      "id": 25,
      "metrique": "Steel",
      "reel": 464,
      "previonel": 72,
      "difference": 40
    }
  ]
}
